module gitlab.com/mauromamani20014/react-go/server

go 1.17

require (
	github.com/andybalholm/brotli v1.0.2 // indirect
	github.com/dgrijalva/jwt-go v3.2.0+incompatible // indirect
	github.com/gofiber/fiber/v2 v2.18.0 // indirect
	github.com/jinzhu/inflection v1.0.0 // indirect
	github.com/jinzhu/now v1.1.2 // indirect
	github.com/klauspost/compress v1.13.4 // indirect
	github.com/mattn/go-sqlite3 v1.14.8 // indirect
	github.com/valyala/bytebufferpool v1.0.0 // indirect
	github.com/valyala/fasthttp v1.29.0 // indirect
	github.com/valyala/tcplisten v1.0.0 // indirect
	golang.org/x/crypto v0.0.0-20210915214749-c084706c2272 // indirect
	golang.org/x/sys v0.0.0-20210615035016-665e8c7367d1 // indirect
	gorm.io/driver/sqlite v1.1.5 // indirect
	gorm.io/gorm v1.21.15 // indirect
)
